Prelab3/TimingDiagram.vcd
$date
	Mon Apr 24 16:57:42 2023
$end
$version
	Icarus Verilog
$end
$timescale
	1ns
$end
$scope module testbench $end
$var wire 1 ! y $end
$upscope $end
$scope module testbench $end
$var wire 3 " cs [2:0] $end
$upscope $end
$scope module testbench $end
$var wire 3 # ns [2:0] $end
$upscope $end
$scope module testbench $end
$var reg 1 $ x $end
$upscope $end
$scope module testbench $end
$var reg 1 % rst $end
$upscope $end
$scope module testbench $end
$var reg 1 & clk $end
$upscope $end
$enddefinitions $end
$comment Show the parameter values. $end
$dumpall
$end
#0
$dumpvars
1&
1%
0$
b0 #
b0 "
0!
$end
#10
0&
#20
1&
0%
#30
0&
#40
1&
#50
0&
#60
1&
#70
0&
#80
b1 #
1&
1$
#90
0&
#100
b10 #
1!
b1 "
1&
#110
0&
#120
0!
b10 "
b1 #
1&
0$
#130
0&
#140
b0 #
1!
b1 "
1&
#150
0&
#160
0!
b0 "
1&
#170
0&
#180
1&
#190
0&
#200
1&
#210
0&
#220
b1 #
1&
1$
#230
0&
#240
b10 #
1!
b1 "
1&
#250
0&
#260
0!
b10 "
b1 #
1&
0$
#270
0&
#280
b0 #
1!
b1 "
1&
#290
0&
#300
0!
b0 "
b1 #
1&
1$
#310
0&
#320
b10 #
1!
b1 "
1&
#330
0&
#340
0!
b10 "
b1 #
1&
0$
#350
0&
#360
b0 #
1!
b1 "
1&
#370
0&
#380
0!
b0 "
1&
#390
0&
#400
1&
#410
0&
#420
b1 #
1&
1$
#430
0&
#440
b10 #
1!
b1 "
1&
#450
0&
#460
0!
b10 "
b1 #
1&
0$
#470
0&
#480
b0 #
1!
b1 "
1&
#490
0&
#500
0!
b0 "
1&
#510
0&
#520
1&
#530
0&
#540
1&
#550
0&
#560
b1 #
1&
1$
#570
0&
#580
b10 #
1!
b1 "
1&
#590
0&
#600
0!
b10 "
b1 #
1&
0$
#610
0&
#620
b0 #
1!
b1 "
1&
#630
0&
#640
0!
b0 "
1&
#650
0&
#660
1&
#670
0&
#680
1&
#690
0&
#700
b1 #
1&
1$
#710
0&
#720
b10 #
1!
b1 "
1&
#730
0&
#740
0!
b10 "
b1 #
1&
0$
#750
0&
#760
b0 #
1!
b1 "
1&
#770
0&
#780
0!
b0 "
1&
#790
0&
#800
1&
#810
0&
#820
b1 #
1&
1$
#830
0&
#840
b10 #
1!
b1 "
1&
#850
0&
#860
0!
b10 "
b1 #
1&
0$
#870
0&
#880
b0 #
1!
b1 "
1&
#890
0&
#900
0!
b0 "
1&
#910
0&
#920
1&
#930
0&
#940
b1 #
1&
1$
#950
0&
#960
b10 #
1!
b1 "
1&
#970
0&
#980
0!
b10 "
b1 #
1&
0$
#990
0&
#1000
b0 #
1!
b1 "
1&
#1010
0&
#1020
0!
b0 "
1&
#1030
0&
#1040
1&
#1050
0&
#1060
b1 #
1&
1$
#1070
0&
#1080
b10 #
1!
b1 "
1&
#1090
0&
#1100
0!
b10 "
b1 #
1&
0$
#1110
0&
#1120
b0 #
1!
b1 "
1&
#1130
0&
#1140
0!
b0 "
1&
#1150
0&
#1160
1&
#1170
0&
#1180
b1 #
1&
1$
#1190
0&
#1200
b10 #
1!
b1 "
1&
#1210
0&
#1220
0!
b10 "
b1 #
1&
0$
#1230
0&
#1240
b0 #
1!
b1 "
1&
#1250
0&
#1260
0!
b0 "
1&
